00000000 W __heap_end
00000000 a __tmp_reg__
00000000 a __tmp_reg__
00000000 W __vector_default
00000000 T __vectors
00000001 a __zero_reg__
00000001 a __zero_reg__
00000026 T __ctors_end
00000026 T __ctors_start
00000026 T __dtors_end
00000026 T __dtors_start
00000026 W __init
00000026 T __trampolines_end
00000026 T __trampolines_start
00000032 T __do_clear_bss
00000034 a __CCP__
00000034 a __CCP__
0000003a t .do_clear_bss_loop
0000003c t .do_clear_bss_start
0000003d a __SP_L__
0000003d a __SP_L__
0000003e a __SP_H__
0000003e a __SP_H__
0000003f a __SREG__
0000003f a __SREG__
00000046 T __bad_interrupt
00000046 W __vector_1
00000046 W __vector_10
00000046 W __vector_11
00000046 W __vector_12
00000046 W __vector_13
00000046 W __vector_14
00000046 W __vector_15
00000046 W __vector_16
00000046 W __vector_17
00000046 W __vector_18
00000046 W __vector_2
00000046 W __vector_3
00000046 W __vector_4
00000046 W __vector_5
00000046 W __vector_6
00000046 W __vector_7
00000046 W __vector_8
00000046 W __vector_9
00000048 T adc_init
00000052 T read_adc_value
0000006c T plot_total_screen
000000d8 T main
00000178 T ks0108ReadFontData
0000017e T ks0108SelectFont
00000194 T ks0108CharWidth
00000208 T ks0108StringWidth
00000236 T ks0108StringWidth_P
00000268 T ks0108WriteCommand
000002b4 T ks0108GotoXY
000002f8 T ks0108DoReadData
0000036a T ks0108WriteData
0000045f W __stack
000004a2 T ks0108PutChar
0000067c T ks0108Puts_P
000006c8 T ks0108Puts
00000712 T ks0108SetDot
00000764 T ks0108InvertRect
0000087e T ks0108SetInverted
0000089c T ks0108FillRect
000009b4 T ks0108Init
000009f8 T ks0108DrawRoundRect
00000b96 T ks0108DrawRect
00000bde T ks0108DrawLine
00000dfa T __divmodhi4
00000dfa T _div
00000e0e t __divmodhi4_neg2
00000e14 t __divmodhi4_exit
00000e16 t __divmodhi4_neg1
00000e20 T __udivmodhi4
00000e28 t __udivmodhi4_loop
00000e36 t __udivmodhi4_ep
00000e48 T _exit
00000e48 W exit
00000e4a t __stop_program
00000e4c A __data_load_end
00000e4c A __data_load_start
00000e4c T _etext
00800060 B __bss_start
00800060 B _edata
00800060 B ks0108Inverted
00800061 B t
00800062 B temp
008000e2 B v
00800162 B ks0108FontColor
00800163 B ks0108Coord
00800166 B ks0108FontRead
00800168 B ks0108Font
0080016a B __bss_end
0080016a N _end
00810000 N __eeprom_end
