   1               		.file	"main.c"
   2               	__SREG__ = 0x3f
   3               	__SP_H__ = 0x3e
   4               	__SP_L__ = 0x3d
   5               	__CCP__  = 0x34
   6               	__tmp_reg__ = 0
   7               	__zero_reg__ = 1
  15               	.Ltext0:
  16               	.global	adc_init
  18               	adc_init:
  19               	.LFB7:
  20               	.LM1:
  21               	.LVL0:
  22               	/* prologue: function */
  23               	/* frame size = 0 */
  24               	.LM2:
  25 0000 3E9A      		sbi 39-32,6
  26               	.LM3:
  27 0002 379A      		sbi 38-32,7
  28               	.LM4:
  29 0004 329A      		sbi 38-32,2
  30               	.LM5:
  31 0006 3198      		cbi 38-32,1
  32               	.LM6:
  33 0008 309A      		sbi 38-32,0
  34               	.LM7:
  35 000a 3D9A      		sbi 39-32,5
  36               	.LM8:
  37 000c 97B1      		in r25,39-32
  38 000e 987F      		andi r25,lo8(-8)
  39 0010 97B9      		out 39-32,r25
  40               	.LM9:
  41 0012 97B1      		in r25,39-32
  42 0014 8770      		andi r24,lo8(7)
  43               	.LVL1:
  44 0016 892B      		or r24,r25
  45 0018 87B9      		out 39-32,r24
  46               	/* epilogue start */
  47               	.LM10:
  48 001a 0895      		ret
  49               	.LFE7:
  51               	.global	read_adc_value
  53               	read_adc_value:
  54               	.LFB8:
  55               	.LM11:
  56               	/* prologue: function */
  57               	/* frame size = 0 */
  58               	.LM12:
  59 001c 369A      		sbi 38-32,6
  60               	.L4:
  61               	.LM13:
  62 001e 349B      		sbis 38-32,4
  63 0020 00C0      		rjmp .L4
  64               	.LM14:
  65 0022 349A      		sbi 38-32,4
  66               	.LM15:
  67 0024 85B1      		in r24,37-32
  68               	/* epilogue start */
  69               	.LM16:
  70 0026 0895      		ret
  71               	.LFE8:
  73               	.global	extrn_intrr_init
  75               	extrn_intrr_init:
  76               	.LFB9:
  77               	.LM17:
  78               	/* prologue: function */
  79               	/* frame size = 0 */
  80               	.LM18:
  81 0028 8A98      		cbi 49-32,2
  82               	.LM19:
  83 002a 85B7      		in r24,85-32
  84 002c 8260      		ori r24,lo8(2)
  85 002e 85BF      		out 85-32,r24
  86               	.LM20:
  87 0030 8091 0000 		lds r24,mode
  88 0034 8330      		cpi r24,lo8(3)
  89 0036 01F4      		brne .L8
  90               	.LM21:
  91 0038 8BB7      		in r24,91-32
  92 003a 8064      		ori r24,lo8(64)
  93 003c 00C0      		rjmp .L11
  94               	.L8:
  95               	.LM22:
  96 003e 8BB7      		in r24,91-32
  97 0040 8F7B      		andi r24,lo8(-65)
  98               	.L11:
  99 0042 8BBF      		out 91-32,r24
 100 0044 0895      		ret
 101               	.LFE9:
 103               	.global	main
 105               	main:
 106               	.LFB6:
 107               	.LM23:
 108 0046 0F93      		push r16
 109 0048 1F93      		push r17
 110 004a CF93      		push r28
 111 004c DF93      		push r29
 112               	/* prologue: function */
 113               	/* frame size = 0 */
 114               	.LM24:
 115 004e B89A      		sbi 55-32,0
 116               	.LM25:
 117 0050 B99A      		sbi 55-32,1
 118               	.LM26:
 119 0052 C09A      		sbi 56-32,0
 120               	.LM27:
 121 0054 C19A      		sbi 56-32,1
 122               	.LM28:
 123 0056 BB9A      		sbi 55-32,3
 124               	.LM29:
 125 0058 BC9A      		sbi 55-32,4
 126               	.LM30:
 127 005a BD9A      		sbi 55-32,5
 128               	.LM31:
 129 005c C398      		cbi 56-32,3
 130               	.LM32:
 131 005e C498      		cbi 56-32,4
 132               	.LM33:
 133 0060 C59A      		sbi 56-32,5
 134               	.LM34:
 135 0062 81E0      		ldi r24,lo8(1)
 136 0064 00D0      		rcall adc_init
 137               	.LBB20:
 138               	.LBB21:
 139               	.LM35:
 140 0066 10BC      		out 64-32,__zero_reg__
 141               	.LM36:
 142 0068 83E3      		ldi r24,lo8(51)
 143 006a 89B9      		out 41-32,r24
 144               	.LM37:
 145 006c 88E9      		ldi r24,lo8(-104)
 146 006e 8AB9      		out 42-32,r24
 147               	.LM38:
 148 0070 86E8      		ldi r24,lo8(-122)
 149 0072 80BD      		out 64-32,r24
 150               	.LBE21:
 151               	.LBE20:
 152               	.LM39:
 153 0074 00D0      		rcall extrn_intrr_init
 154               	.LM40:
 155               	/* #APP */
 156               	 ;  47 "main.c" 1
 157 0076 7894      		sei
 158               	 ;  0 "" 2
 159               	/* #NOAPP */
 160               	.LBB22:
 161               	.LBB23:
 162               	.LBB24:
 163               	.LBB25:
 164               	.LM41:
 165 0078 C8EC      		ldi r28,lo8(200)
 166 007a D0E0      		ldi r29,hi8(200)
 167               	.LVL2:
 168               	.L35:
 169               	.LBE25:
 170               	.LBE24:
 171               	.LBE23:
 172               	.LBE22:
 173               	.LM42:
 174 007c 8091 0000 		lds r24,mode
 175               	.LVL3:
 176 0080 8330      		cpi r24,lo8(3)
 177 0082 01F0      		breq .+2
 178 0084 00C0      		rjmp .L13
 179               	.LM43:
 180 0086 8091 0000 		lds r24,trig
 181 008a 8130      		cpi r24,lo8(1)
 182 008c 01F4      		brne .L35
 183               	.LM44:
 184 008e 8BB7      		in r24,91-32
 185 0090 8F7B      		andi r24,lo8(-65)
 186 0092 8BBF      		out 91-32,r24
 187               	.LM45:
 188 0094 1092 0000 		sts (n)+1,__zero_reg__
 189 0098 1092 0000 		sts n,__zero_reg__
 190 009c 00C0      		rjmp .L15
 191               	.L16:
 192               	.LM46:
 193 009e 0091 0000 		lds r16,n
 194 00a2 1091 0000 		lds r17,(n)+1
 195 00a6 00D0      		rcall read_adc_value
 196               	.LVL4:
 197 00a8 0050      		subi r16,lo8(-(frame))
 198 00aa 1040      		sbci r17,hi8(-(frame))
 199 00ac F801      		movw r30,r16
 200 00ae 8083      		st Z,r24
 201               	.LM47:
 202 00b0 8091 0000 		lds r24,n
 203 00b4 9091 0000 		lds r25,(n)+1
 204 00b8 0196      		adiw r24,1
 205 00ba 9093 0000 		sts (n)+1,r25
 206 00be 8093 0000 		sts n,r24
 207               	.LVL5:
 208               	.L15:
 209 00c2 8091 0000 		lds r24,n
 210 00c6 9091 0000 		lds r25,(n)+1
 211 00ca 8F3F      		cpi r24,255
 212 00cc 9105      		cpc r25,__zero_reg__
 213 00ce 01F0      		breq .L16
 214 00d0 00F0      		brlo .L16
 215               	.LM48:
 216 00d2 1092 0000 		sts (n)+1,__zero_reg__
 217 00d6 1092 0000 		sts n,__zero_reg__
 218 00da 00C0      		rjmp .L17
 219               	.L19:
 220               	.LM49:
 221 00dc E091 0000 		lds r30,n
 222 00e0 F091 0000 		lds r31,(n)+1
 223               	.LVL6:
 224 00e4 E050      		subi r30,lo8(-(frame))
 225 00e6 F040      		sbci r31,hi8(-(frame))
 226 00e8 E081      		ld r30,Z
 227               	.L18:
 228               	.LBB29:
 229               	.LBB30:
 230               	.LM50:
 231 00ea 5D9B      		sbis 43-32,5
 232 00ec 00C0      		rjmp .L18
 233               	.LM51:
 234 00ee ECB9      		out 44-32,r30
 235               	.LBE30:
 236               	.LBE29:
 237               	.LM52:
 238 00f0 8091 0000 		lds r24,n
 239 00f4 9091 0000 		lds r25,(n)+1
 240 00f8 0196      		adiw r24,1
 241 00fa 9093 0000 		sts (n)+1,r25
 242 00fe 8093 0000 		sts n,r24
 243               	.LVL7:
 244               	.L17:
 245 0102 8091 0000 		lds r24,n
 246 0106 9091 0000 		lds r25,(n)+1
 247 010a 8F3F      		cpi r24,255
 248 010c 9105      		cpc r25,__zero_reg__
 249 010e 01F0      		breq .L19
 250 0110 00F0      		brlo .L19
 251               	.LM53:
 252 0112 1092 0000 		sts trig,__zero_reg__
 253               	.LM54:
 254 0116 8BB7      		in r24,91-32
 255 0118 8064      		ori r24,lo8(64)
 256 011a 8BBF      		out 91-32,r24
 257 011c 00C0      		rjmp .L35
 258               	.L13:
 259               	.LM55:
 260 011e 8091 0000 		lds r24,mode
 261 0122 8230      		cpi r24,lo8(2)
 262 0124 01F0      		breq .+2
 263 0126 00C0      		rjmp .L20
 264               	.LM56:
 265 0128 1092 0000 		sts (n)+1,__zero_reg__
 266 012c 1092 0000 		sts n,__zero_reg__
 267 0130 00C0      		rjmp .L21
 268               	.L22:
 269               	.LM57:
 270 0132 0091 0000 		lds r16,n
 271 0136 1091 0000 		lds r17,(n)+1
 272 013a 00D0      		rcall read_adc_value
 273               	.LVL8:
 274 013c 0050      		subi r16,lo8(-(frame))
 275 013e 1040      		sbci r17,hi8(-(frame))
 276 0140 F801      		movw r30,r16
 277 0142 8083      		st Z,r24
 278               	.LM58:
 279 0144 8091 0000 		lds r24,n
 280 0148 9091 0000 		lds r25,(n)+1
 281 014c 0196      		adiw r24,1
 282 014e 9093 0000 		sts (n)+1,r25
 283 0152 8093 0000 		sts n,r24
 284               	.LVL9:
 285               	.L21:
 286 0156 8091 0000 		lds r24,n
 287 015a 9091 0000 		lds r25,(n)+1
 288 015e 8F3F      		cpi r24,255
 289 0160 9105      		cpc r25,__zero_reg__
 290 0162 01F0      		breq .L22
 291 0164 00F0      		brlo .L22
 292               	.LM59:
 293 0166 1092 0000 		sts (n)+1,__zero_reg__
 294 016a 1092 0000 		sts n,__zero_reg__
 295 016e 00C0      		rjmp .L23
 296               	.L25:
 297               	.LM60:
 298 0170 E091 0000 		lds r30,n
 299 0174 F091 0000 		lds r31,(n)+1
 300               	.LVL10:
 301 0178 E050      		subi r30,lo8(-(frame))
 302 017a F040      		sbci r31,hi8(-(frame))
 303 017c E081      		ld r30,Z
 304               	.L24:
 305               	.LBB31:
 306               	.LBB32:
 307               	.LM61:
 308 017e 5D9B      		sbis 43-32,5
 309 0180 00C0      		rjmp .L24
 310               	.LM62:
 311 0182 ECB9      		out 44-32,r30
 312               	.LBE32:
 313               	.LBE31:
 314               	.LM63:
 315 0184 8091 0000 		lds r24,n
 316 0188 9091 0000 		lds r25,(n)+1
 317 018c 0196      		adiw r24,1
 318 018e 9093 0000 		sts (n)+1,r25
 319 0192 8093 0000 		sts n,r24
 320               	.LVL11:
 321               	.L23:
 322 0196 8091 0000 		lds r24,n
 323 019a 9091 0000 		lds r25,(n)+1
 324 019e 8F3F      		cpi r24,255
 325 01a0 9105      		cpc r25,__zero_reg__
 326 01a2 01F0      		breq .L25
 327 01a4 00F0      		brlo .L25
 328 01a6 00C0      		rjmp .L35
 329               	.L20:
 330               	.LM64:
 331 01a8 8091 0000 		lds r24,mode
 332 01ac 8130      		cpi r24,lo8(1)
 333 01ae 01F0      		breq .+2
 334 01b0 00C0      		rjmp .L35
 335               	.LM65:
 336 01b2 00D0      		rcall read_adc_value
 337               	.LVL12:
 338               	.L26:
 339               	.LBB33:
 340               	.LBB34:
 341               	.LM66:
 342 01b4 5D9B      		sbis 43-32,5
 343 01b6 00C0      		rjmp .L26
 344               	.LM67:
 345 01b8 8CB9      		out 44-32,r24
 346 01ba 8EED      		ldi r24,lo8(990)
 347 01bc 93E0      		ldi r25,hi8(990)
 348               	.LVL13:
 349               	.L27:
 350               	.LBE34:
 351               	.LBE33:
 352               	.LBB35:
 353               	.LBB28:
 354               	.LBB27:
 355               	.LBB26:
 356               	.LM68:
 357 01be FE01      		movw r30,r28
 358               	.LVL14:
 359               	/* #APP */
 360               	 ;  105 "d:/winavr-20100110/lib/gcc/../../avr/include/util/delay_basic.h" 1
 361 01c0 3197      		1: sbiw r30,1
 362 01c2 01F4      		brne 1b
 363               	 ;  0 "" 2
 364               	/* #NOAPP */
 365               	.LBE26:
 366               	.LBE27:
 367               	.LM69:
 368 01c4 0197      		sbiw r24,1
 369               	.LM70:
 370 01c6 01F4      		brne .L27
 371 01c8 00C0      		rjmp .L35
 372               	.LBE28:
 373               	.LBE35:
 374               	.LFE6:
 376               	.global	__vector_1
 378               	__vector_1:
 379               	.LFB10:
 380               	.LM71:
 381 01ca 1F92      		push __zero_reg__
 382 01cc 0F92      		push r0
 383 01ce 0FB6      		in r0,__SREG__
 384 01d0 0F92      		push r0
 385 01d2 1124      		clr __zero_reg__
 386 01d4 8F93      		push r24
 387               	/* prologue: Signal */
 388               	/* frame size = 0 */
 389               	.LM72:
 390 01d6 81E0      		ldi r24,lo8(1)
 391 01d8 8093 0000 		sts trig,r24
 392               	/* epilogue start */
 393               	.LM73:
 394 01dc 8F91      		pop r24
 395 01de 0F90      		pop r0
 396 01e0 0FBE      		out __SREG__,r0
 397 01e2 0F90      		pop r0
 398 01e4 1F90      		pop __zero_reg__
 399 01e6 1895      		reti
 400               	.LFE10:
 402               	.global	USART_init
 404               	USART_init:
 405               	.LFB11:
 406               	.LM74:
 407               	.LVL15:
 408               	/* prologue: function */
 409               	/* frame size = 0 */
 410               	.LM75:
 411 01e8 90BD      		out 64-32,r25
 412               	.LVL16:
 413               	.LM76:
 414 01ea 89B9      		out 41-32,r24
 415               	.LM77:
 416 01ec 88E9      		ldi r24,lo8(-104)
 417               	.LVL17:
 418 01ee 8AB9      		out 42-32,r24
 419               	.LM78:
 420 01f0 86E8      		ldi r24,lo8(-122)
 421 01f2 80BD      		out 64-32,r24
 422               	/* epilogue start */
 423               	.LM79:
 424 01f4 0895      		ret
 425               	.LFE11:
 427               	.global	USART_transmit
 429               	USART_transmit:
 430               	.LFB12:
 431               	.LM80:
 432               	/* prologue: function */
 433               	/* frame size = 0 */
 434               	.LVL18:
 435               	.L41:
 436               	.LM81:
 437 01f6 5D9B      		sbis 43-32,5
 438 01f8 00C0      		rjmp .L41
 439               	.LM82:
 440 01fa 8CB9      		out 44-32,r24
 441               	/* epilogue start */
 442               	.LM83:
 443 01fc 0895      		ret
 444               	.LFE12:
 446               	.global	__vector_11
 448               	__vector_11:
 449               	.LFB13:
 450               	.LM84:
 451 01fe 1F92      		push __zero_reg__
 452 0200 0F92      		push r0
 453 0202 0FB6      		in r0,__SREG__
 454 0204 0F92      		push r0
 455 0206 1124      		clr __zero_reg__
 456 0208 8F93      		push r24
 457               	/* prologue: Signal */
 458               	/* frame size = 0 */
 459               	.LM85:
 460 020a 8CB1      		in r24,44-32
 461 020c 8093 0000 		sts cmd,r24
 462               	.LM86:
 463 0210 8091 0000 		lds r24,cmd
 464 0214 8136      		cpi r24,lo8(97)
 465 0216 01F0      		breq .L51
 466 0218 8236      		cpi r24,lo8(98)
 467 021a 00F4      		brsh .L57
 468 021c 8333      		cpi r24,lo8(51)
 469 021e 01F0      		breq .L48
 470 0220 8433      		cpi r24,lo8(52)
 471 0222 00F4      		brsh .L58
 472 0224 8133      		cpi r24,lo8(49)
 473 0226 01F0      		breq .L46
 474 0228 8233      		cpi r24,lo8(50)
 475 022a 01F0      		breq .+2
 476 022c 00C0      		rjmp .L60
 477 022e 00C0      		rjmp .L66
 478               	.L58:
 479 0230 8433      		cpi r24,lo8(52)
 480 0232 01F0      		breq .L49
 481 0234 8533      		cpi r24,lo8(53)
 482 0236 01F4      		brne .L60
 483 0238 00C0      		rjmp .L67
 484               	.L57:
 485 023a 8737      		cpi r24,lo8(119)
 486 023c 01F0      		breq .L54
 487 023e 8837      		cpi r24,lo8(120)
 488 0240 00F4      		brsh .L59
 489 0242 8236      		cpi r24,lo8(98)
 490 0244 01F0      		breq .L52
 491 0246 8336      		cpi r24,lo8(99)
 492 0248 01F4      		brne .L60
 493 024a 00C0      		rjmp .L68
 494               	.L59:
 495 024c 8837      		cpi r24,lo8(120)
 496 024e 01F0      		breq .L55
 497 0250 8937      		cpi r24,lo8(121)
 498 0252 01F4      		brne .L60
 499 0254 00C0      		rjmp .L69
 500               	.L51:
 501               	.LM87:
 502 0256 C39A      		sbi 56-32,3
 503               	.LM88:
 504 0258 C498      		cbi 56-32,4
 505 025a 00C0      		rjmp .L61
 506               	.L52:
 507               	.LM89:
 508 025c C398      		cbi 56-32,3
 509               	.LM90:
 510 025e C49A      		sbi 56-32,4
 511               	.L61:
 512               	.LM91:
 513 0260 C598      		cbi 56-32,5
 514 0262 00C0      		rjmp .L60
 515               	.L68:
 516               	.LM92:
 517 0264 C398      		cbi 56-32,3
 518               	.LM93:
 519 0266 C498      		cbi 56-32,4
 520               	.LM94:
 521 0268 C59A      		sbi 56-32,5
 522 026a 00C0      		rjmp .L60
 523               	.L54:
 524               	.LM95:
 525 026c 81E0      		ldi r24,lo8(1)
 526 026e 00C0      		rjmp .L62
 527               	.L55:
 528               	.LM96:
 529 0270 82E0      		ldi r24,lo8(2)
 530               	.L62:
 531 0272 8093 0000 		sts mode,r24
 532 0276 8BB7      		in r24,91-32
 533 0278 8F7B      		andi r24,lo8(-65)
 534               	.L65:
 535 027a 8BBF      		out 91-32,r24
 536 027c 00C0      		rjmp .L60
 537               	.L69:
 538               	.LM97:
 539 027e 83E0      		ldi r24,lo8(3)
 540 0280 8093 0000 		sts mode,r24
 541 0284 8BB7      		in r24,91-32
 542 0286 8064      		ori r24,lo8(64)
 543 0288 00C0      		rjmp .L65
 544               	.L46:
 545               	.LM98:
 546 028a 3298      		cbi 38-32,2
 547               	.LM99:
 548 028c 319A      		sbi 38-32,1
 549 028e 00C0      		rjmp .L64
 550               	.L66:
 551               	.LM100:
 552 0290 329A      		sbi 38-32,2
 553               	.LM101:
 554 0292 3198      		cbi 38-32,1
 555 0294 00C0      		rjmp .L63
 556               	.L48:
 557               	.LM102:
 558 0296 329A      		sbi 38-32,2
 559               	.LM103:
 560 0298 3198      		cbi 38-32,1
 561               	.L64:
 562               	.LM104:
 563 029a 309A      		sbi 38-32,0
 564 029c 00C0      		rjmp .L60
 565               	.L49:
 566               	.LM105:
 567 029e 329A      		sbi 38-32,2
 568               	.LM106:
 569 02a0 319A      		sbi 38-32,1
 570               	.L63:
 571               	.LM107:
 572 02a2 3098      		cbi 38-32,0
 573 02a4 00C0      		rjmp .L60
 574               	.L67:
 575               	.LM108:
 576 02a6 86B1      		in r24,38-32
 577 02a8 8760      		ori r24,lo8(7)
 578 02aa 86B9      		out 38-32,r24
 579               	.L60:
 580               	/* epilogue start */
 581               	.LM109:
 582 02ac 8F91      		pop r24
 583 02ae 0F90      		pop r0
 584 02b0 0FBE      		out __SREG__,r0
 585 02b2 0F90      		pop r0
 586 02b4 1F90      		pop __zero_reg__
 587 02b6 1895      		reti
 588               	.LFE13:
 590               	.global	trig
 591               	.global	trig
 592               		.section .bss
 595               	trig:
 596 0000 00        		.skip 1,0
 597               	.global	mode
 598               		.data
 601               	mode:
 602 0000 02        		.byte	2
 603               		.comm cmd,1,1
 604               		.comm n,2,1
 605               		.comm frame,256,1
 686               	.Letext0:
DEFINED SYMBOLS
                            *ABS*:00000000 main.c
D:\DOCUME~1\ayz\LOCALS~1\Temp/ccivCKVB.s:2      *ABS*:0000003f __SREG__
D:\DOCUME~1\ayz\LOCALS~1\Temp/ccivCKVB.s:3      *ABS*:0000003e __SP_H__
D:\DOCUME~1\ayz\LOCALS~1\Temp/ccivCKVB.s:4      *ABS*:0000003d __SP_L__
D:\DOCUME~1\ayz\LOCALS~1\Temp/ccivCKVB.s:5      *ABS*:00000034 __CCP__
D:\DOCUME~1\ayz\LOCALS~1\Temp/ccivCKVB.s:6      *ABS*:00000000 __tmp_reg__
D:\DOCUME~1\ayz\LOCALS~1\Temp/ccivCKVB.s:7      *ABS*:00000001 __zero_reg__
D:\DOCUME~1\ayz\LOCALS~1\Temp/ccivCKVB.s:18     .text:00000000 adc_init
D:\DOCUME~1\ayz\LOCALS~1\Temp/ccivCKVB.s:53     .text:0000001c read_adc_value
D:\DOCUME~1\ayz\LOCALS~1\Temp/ccivCKVB.s:75     .text:00000028 extrn_intrr_init
D:\DOCUME~1\ayz\LOCALS~1\Temp/ccivCKVB.s:601    .data:00000000 mode
D:\DOCUME~1\ayz\LOCALS~1\Temp/ccivCKVB.s:105    .text:00000046 main
D:\DOCUME~1\ayz\LOCALS~1\Temp/ccivCKVB.s:595    .bss:00000000 trig
                            *COM*:00000002 n
                            *COM*:00000100 frame
D:\DOCUME~1\ayz\LOCALS~1\Temp/ccivCKVB.s:378    .text:000001ca __vector_1
D:\DOCUME~1\ayz\LOCALS~1\Temp/ccivCKVB.s:404    .text:000001e8 USART_init
D:\DOCUME~1\ayz\LOCALS~1\Temp/ccivCKVB.s:429    .text:000001f6 USART_transmit
D:\DOCUME~1\ayz\LOCALS~1\Temp/ccivCKVB.s:448    .text:000001fe __vector_11
                            *COM*:00000001 cmd

UNDEFINED SYMBOLS
__do_copy_data
__do_clear_bss
