   1               		.file	"uart.c"
   2               	__SREG__ = 0x3f
   3               	__SP_H__ = 0x3e
   4               	__SP_L__ = 0x3d
   5               	__CCP__  = 0x34
   6               	__tmp_reg__ = 0
   7               	__zero_reg__ = 1
  15               	.Ltext0:
  16               	.global	uart_init
  18               	uart_init:
  19               	.LFB3:
  20               	.LM1:
  21               	/* prologue: function */
  22               	/* frame size = 0 */
  23               	.LM2:
  24 0000 87E6      		ldi r24,lo8(103)
  25 0002 89B9      		out 41-32,r24
  26               	.LM3:
  27 0004 88E1      		ldi r24,lo8(24)
  28 0006 8AB9      		out 42-32,r24
  29               	/* epilogue start */
  30               	.LM4:
  31 0008 0895      		ret
  32               	.LFE3:
  34               		.data
  35               	.LC0:
  36 0000 2A72 696E 		.string	"*ring*\n"
  36      672A 0A00 
  37               		.text
  38               	.global	uart_putchar
  40               	uart_putchar:
  41               	.LFB4:
  42               	.LM5:
  43               	.LVL0:
  44 000a 1F93      		push r17
  45               	/* prologue: function */
  46               	/* frame size = 0 */
  47 000c 182F      		mov r17,r24
  48               	.LM6:
  49 000e 8730      		cpi r24,lo8(7)
  50 0010 01F4      		brne .L4
  51               	.LM7:
  52 0012 6091 0000 		lds r22,__iob+4
  53 0016 7091 0000 		lds r23,(__iob+4)+1
  54               	.LVL1:
  55 001a 80E0      		ldi r24,lo8(.LC0)
  56 001c 90E0      		ldi r25,hi8(.LC0)
  57               	.LVL2:
  58 001e 00D0      		rcall fputs
  59 0020 00C0      		rjmp .L5
  60               	.LVL3:
  61               	.L4:
  62               	.LM8:
  63 0022 8A30      		cpi r24,lo8(10)
  64 0024 01F4      		brne .L8
  65               	.LM9:
  66 0026 8DE0      		ldi r24,lo8(13)
  67               	.LVL4:
  68 0028 00D0      		rcall uart_putchar
  69               	.LVL5:
  70               	.L8:
  71               	.LM10:
  72 002a 5D9B      		sbis 43-32,5
  73 002c 00C0      		rjmp .L8
  74               	.LM11:
  75 002e 1CB9      		out 44-32,r17
  76               	.L5:
  77               	.LM12:
  78 0030 80E0      		ldi r24,lo8(0)
  79 0032 90E0      		ldi r25,hi8(0)
  80               	/* epilogue start */
  81 0034 1F91      		pop r17
  82               	.LVL6:
  83 0036 0895      		ret
  84               	.LFE4:
  86               	.global	uart_getchar
  88               	uart_getchar:
  89               	.LFB5:
  90               	.LM13:
  91               	.LVL7:
  92 0038 EF92      		push r14
  93 003a FF92      		push r15
  94 003c 0F93      		push r16
  95 003e 1F93      		push r17
  96 0040 CF93      		push r28
  97 0042 DF93      		push r29
  98               	/* prologue: function */
  99               	/* frame size = 0 */
 100 0044 7C01      		movw r14,r24
 101               	.LM14:
 102 0046 8091 0000 		lds r24,rxp.1401
 103 004a 9091 0000 		lds r25,(rxp.1401)+1
 104               	.LVL8:
 105 004e 892B      		or r24,r25
 106 0050 01F0      		breq .+2
 107 0052 00C0      		rjmp .L11
 108 0054 00E0      		ldi r16,lo8(b.1400)
 109 0056 10E0      		ldi r17,hi8(b.1400)
 110               	.LVL9:
 111               	.L37:
 112               	.LM15:
 113 0058 5F9B      		sbis 43-32,7
 114 005a 00C0      		rjmp .L37
 115               	.LM16:
 116 005c 5C9B      		sbis 43-32,4
 117 005e 00C0      		rjmp .L13
 118 0060 2EEF      		ldi r18,lo8(-2)
 119 0062 3FEF      		ldi r19,hi8(-2)
 120 0064 00C0      		rjmp .L14
 121               	.L13:
 122               	.LM17:
 123 0066 5B99      		sbic 43-32,3
 124 0068 00C0      		rjmp .L15
 125               	.LM18:
 126 006a 9CB1      		in r25,44-32
 127               	.LM19:
 128 006c 9D30      		cpi r25,lo8(13)
 129 006e 01F0      		breq .L16
 130               	.LM20:
 131 0070 9A30      		cpi r25,lo8(10)
 132 0072 01F4      		brne .L17
 133               	.L16:
 134               	.LM21:
 135 0074 8AE0      		ldi r24,lo8(10)
 136 0076 F801      		movw r30,r16
 137 0078 8083      		st Z,r24
 138               	.LM22:
 139 007a B701      		movw r22,r14
 140 007c 00D0      		rcall uart_putchar
 141               	.LVL10:
 142               	.LM23:
 143 007e 80E0      		ldi r24,lo8(b.1400)
 144 0080 90E0      		ldi r25,hi8(b.1400)
 145 0082 9093 0000 		sts (rxp.1401)+1,r25
 146 0086 8093 0000 		sts rxp.1401,r24
 147 008a 00C0      		rjmp .L11
 148               	.LVL11:
 149               	.L17:
 150               	.LM24:
 151 008c 9930      		cpi r25,lo8(9)
 152 008e 01F4      		brne .L18
 153 0090 90E2      		ldi r25,lo8(32)
 154               	.L18:
 155               	.LM25:
 156 0092 892F      		mov r24,r25
 157 0094 8052      		subi r24,lo8(-(-32))
 158 0096 8F35      		cpi r24,lo8(95)
 159 0098 00F0      		brlo .L19
 160 009a 903A      		cpi r25,lo8(-96)
 161 009c 00F0      		brlo .L20
 162               	.L19:
 163               	.LM26:
 164 009e F0E0      		ldi r31,hi8(b.1400+79)
 165 00a0 0030      		cpi r16,lo8(b.1400+79)
 166 00a2 1F07      		cpc r17,r31
 167 00a4 01F4      		brne .L21
 168               	.LM27:
 169 00a6 87E0      		ldi r24,lo8(7)
 170 00a8 00C0      		rjmp .L38
 171               	.L21:
 172               	.LM28:
 173 00aa F801      		movw r30,r16
 174 00ac 9193      		st Z+,r25
 175 00ae 8F01      		movw r16,r30
 176               	.LM29:
 177 00b0 892F      		mov r24,r25
 178               	.LVL12:
 179               	.L38:
 180 00b2 B701      		movw r22,r14
 181 00b4 00D0      		rcall uart_putchar
 182               	.LVL13:
 183 00b6 00C0      		rjmp .L37
 184               	.LVL14:
 185               	.L20:
 186               	.LM30:
 187 00b8 9231      		cpi r25,lo8(18)
 188 00ba 01F0      		breq .L23
 189 00bc 9331      		cpi r25,lo8(19)
 190 00be 00F4      		brsh .L26
 191 00c0 9330      		cpi r25,lo8(3)
 192 00c2 01F4      		brne .+2
 193 00c4 00C0      		rjmp .L15
 194 00c6 9830      		cpi r25,lo8(8)
 195 00c8 01F4      		brne .L37
 196 00ca 00C0      		rjmp .L22
 197               	.L26:
 198 00cc 9731      		cpi r25,lo8(23)
 199 00ce 01F4      		brne .+2
 200 00d0 00C0      		rjmp .L35
 201 00d2 9F37      		cpi r25,lo8(127)
 202 00d4 01F0      		breq .L22
 203 00d6 9531      		cpi r25,lo8(21)
 204 00d8 01F0      		breq .+2
 205 00da 00C0      		rjmp .L37
 206 00dc 00C0      		rjmp .L36
 207               	.L22:
 208               	.LM31:
 209 00de F0E0      		ldi r31,hi8(b.1400)
 210 00e0 0030      		cpi r16,lo8(b.1400)
 211 00e2 1F07      		cpc r17,r31
 212 00e4 01F0      		breq .+2
 213 00e6 00F4      		brsh .+2
 214 00e8 00C0      		rjmp .L37
 215               	.LM32:
 216 00ea 88E0      		ldi r24,lo8(8)
 217 00ec B701      		movw r22,r14
 218 00ee 00D0      		rcall uart_putchar
 219               	.LVL15:
 220               	.LM33:
 221 00f0 80E2      		ldi r24,lo8(32)
 222 00f2 B701      		movw r22,r14
 223 00f4 00D0      		rcall uart_putchar
 224               	.LM34:
 225 00f6 88E0      		ldi r24,lo8(8)
 226 00f8 B701      		movw r22,r14
 227 00fa 00D0      		rcall uart_putchar
 228               	.LM35:
 229 00fc 0150      		subi r16,lo8(-(-1))
 230 00fe 1040      		sbci r17,hi8(-(-1))
 231 0100 00C0      		rjmp .L37
 232               	.LVL16:
 233               	.L23:
 234               	.LM36:
 235 0102 8DE0      		ldi r24,lo8(13)
 236 0104 B701      		movw r22,r14
 237 0106 00D0      		rcall uart_putchar
 238               	.LVL17:
 239 0108 C0E0      		ldi r28,lo8(b.1400)
 240 010a D0E0      		ldi r29,hi8(b.1400)
 241 010c 00C0      		rjmp .L27
 242               	.L28:
 243               	.LM37:
 244 010e 8991      		ld r24,Y+
 245 0110 B701      		movw r22,r14
 246 0112 00D0      		rcall uart_putchar
 247               	.L27:
 248               	.LM38:
 249 0114 C017      		cp r28,r16
 250 0116 D107      		cpc r29,r17
 251 0118 00F0      		brlo .L28
 252 011a 00C0      		rjmp .L37
 253               	.LVL18:
 254               	.L29:
 255               	.LM39:
 256 011c 88E0      		ldi r24,lo8(8)
 257 011e B701      		movw r22,r14
 258 0120 00D0      		rcall uart_putchar
 259               	.LVL19:
 260               	.LM40:
 261 0122 80E2      		ldi r24,lo8(32)
 262 0124 B701      		movw r22,r14
 263 0126 00D0      		rcall uart_putchar
 264               	.LM41:
 265 0128 88E0      		ldi r24,lo8(8)
 266 012a B701      		movw r22,r14
 267 012c 00D0      		rcall uart_putchar
 268               	.LM42:
 269 012e 0150      		subi r16,lo8(-(-1))
 270 0130 1040      		sbci r17,hi8(-(-1))
 271               	.LVL20:
 272               	.L36:
 273               	.LM43:
 274 0132 80E0      		ldi r24,hi8(b.1400)
 275 0134 0030      		cpi r16,lo8(b.1400)
 276 0136 1807      		cpc r17,r24
 277 0138 01F0      		breq .+2
 278 013a 00F4      		brsh .L29
 279 013c 00C0      		rjmp .L37
 280               	.LVL21:
 281               	.L30:
 282               	.LM44:
 283 013e 88E0      		ldi r24,lo8(8)
 284 0140 B701      		movw r22,r14
 285 0142 00D0      		rcall uart_putchar
 286               	.LVL22:
 287               	.LM45:
 288 0144 80E2      		ldi r24,lo8(32)
 289 0146 B701      		movw r22,r14
 290 0148 00D0      		rcall uart_putchar
 291               	.LM46:
 292 014a 88E0      		ldi r24,lo8(8)
 293 014c B701      		movw r22,r14
 294 014e 00D0      		rcall uart_putchar
 295 0150 8E01      		movw r16,r28
 296               	.LVL23:
 297               	.L35:
 298               	.LM47:
 299 0152 E0E0      		ldi r30,hi8(b.1400)
 300 0154 0030      		cpi r16,lo8(b.1400)
 301 0156 1E07      		cpc r17,r30
 302 0158 01F0      		breq .+2
 303 015a 00F4      		brsh .+2
 304 015c 00C0      		rjmp .L37
 305 015e E801      		movw r28,r16
 306               	.LVL24:
 307 0160 8A91      		ld r24,-Y
 308 0162 8032      		cpi r24,lo8(32)
 309 0164 01F4      		brne .L30
 310               	.LVL25:
 311 0166 00C0      		rjmp .L37
 312               	.LVL26:
 313               	.L11:
 314               	.LM48:
 315 0168 E091 0000 		lds r30,rxp.1401
 316 016c F091 0000 		lds r31,(rxp.1401)+1
 317 0170 8191      		ld r24,Z+
 318               	.LVL27:
 319 0172 F093 0000 		sts (rxp.1401)+1,r31
 320 0176 E093 0000 		sts rxp.1401,r30
 321               	.LM49:
 322 017a 8A30      		cpi r24,lo8(10)
 323 017c 01F4      		brne .L31
 324               	.LM50:
 325 017e 1092 0000 		sts (rxp.1401)+1,__zero_reg__
 326 0182 1092 0000 		sts rxp.1401,__zero_reg__
 327               	.L31:
 328               	.LM51:
 329 0186 282F      		mov r18,r24
 330 0188 30E0      		ldi r19,lo8(0)
 331 018a 00C0      		rjmp .L14
 332               	.LVL28:
 333               	.L15:
 334 018c 2FEF      		ldi r18,lo8(-1)
 335 018e 3FEF      		ldi r19,hi8(-1)
 336               	.LVL29:
 337               	.L14:
 338               	.LM52:
 339 0190 C901      		movw r24,r18
 340               	/* epilogue start */
 341 0192 DF91      		pop r29
 342 0194 CF91      		pop r28
 343               	.LVL30:
 344 0196 1F91      		pop r17
 345 0198 0F91      		pop r16
 346               	.LVL31:
 347 019a FF90      		pop r15
 348 019c EF90      		pop r14
 349               	.LVL32:
 350 019e 0895      		ret
 351               	.LFE5:
 353               		.lcomm rxp.1401,2
 354               		.lcomm b.1400,80
 395               	.Letext0:
DEFINED SYMBOLS
                            *ABS*:00000000 uart.c
D:\DOCUME~1\ayz\LOCALS~1\Temp/ccR1PQyz.s:2      *ABS*:0000003f __SREG__
D:\DOCUME~1\ayz\LOCALS~1\Temp/ccR1PQyz.s:3      *ABS*:0000003e __SP_H__
D:\DOCUME~1\ayz\LOCALS~1\Temp/ccR1PQyz.s:4      *ABS*:0000003d __SP_L__
D:\DOCUME~1\ayz\LOCALS~1\Temp/ccR1PQyz.s:5      *ABS*:00000034 __CCP__
D:\DOCUME~1\ayz\LOCALS~1\Temp/ccR1PQyz.s:6      *ABS*:00000000 __tmp_reg__
D:\DOCUME~1\ayz\LOCALS~1\Temp/ccR1PQyz.s:7      *ABS*:00000001 __zero_reg__
D:\DOCUME~1\ayz\LOCALS~1\Temp/ccR1PQyz.s:18     .text:00000000 uart_init
D:\DOCUME~1\ayz\LOCALS~1\Temp/ccR1PQyz.s:40     .text:0000000a uart_putchar
D:\DOCUME~1\ayz\LOCALS~1\Temp/ccR1PQyz.s:88     .text:00000038 uart_getchar
                             .bss:00000000 rxp.1401
D:\DOCUME~1\ayz\LOCALS~1\Temp/ccR1PQyz.s:353    .bss:00000002 b.1400

UNDEFINED SYMBOLS
__iob
fputs
__do_copy_data
__do_clear_bss
